Introduction to group05pkg • group05pkg
…
The function then creates a tibble containing a sequence of integers
ranging from the specified min_neighbors to max_neighbors, inclusive.
The tibble contains a single column named “neighbors” which represents
the number of neighbors to use in the k-nearest neighbor model. Finally,
the function returns the tibble.

For example, if you wanted to generate a grid of values to tune over
for the number of nearest neighbors in the k-nearest neighbor
classification model, where the minimum number of neighbors is 1 and the
maximum number of neighbors is 30, you can use the following code:

drugs_grid <- create_grid(1, 30)
drugs_grid
#> # A tibble: 30 × 1
#>    neighbors
#>        <int>
#>  1         1
#>  2         2
#>  3         3
#>  4         4
#>  5         5
#>  6         6
#>  7         7
#>  8         8
#>  9         9
#> 10        10
#> # ℹ 20 more rows
…
Finally, the function returns the new data frame containing the
predicted outcome of the strata variable for the new test data.
Additionally, the predicted outcome is written to the data folder.

For example, if you had a fitted KNN workflow object called
drugs_real_workflow and a data frame of new test data called test_data,
you could use the following code to predict the outcome of cannabis
usage for the new test data and write the predicted outcome to the data
folder:

drugs_pred <- predict_drugs_workflow(drugs_real_workflow, test_data)
drugs_pred
#> # A tibble: 472 × 9
#>    .pred_class     Age Gender  Nscore Escore Oscore Ascore Nicotine Cannabis
#>    <fct>         <dbl>  <dbl>   <dbl>  <dbl>  <dbl>  <dbl>    <dbl> <fct>   
#>  1 no           0.498  -0.482 -0.467   0.805 -0.847 -1.62         0 yes     
#>  2 no           2.59    0.482 -0.678  -0.300 -1.56   2.04         1 no      
#>  3 no          -0.0785  0.482 -1.05    0.805 -1.12  -0.761        0 no      
#>  4 yes          1.82    0.482  2.29    0.168  0.446 -1.62         1 yes     
#>  5 no           0.498  -0.482 -0.348  -1.76  -2.40  -1.93         0 no      
#>  6 no           1.09   -0.482  1.60   -3.27  -1.28   0.288        1 no      
#>  7 yes          1.82   -0.482 -0.149   0.638  1.24   0.761        1 no      
#>  8 no           1.82    0.482 -0.0519 -1.63  -3.27  -0.761        1 no      
#>  9 no           0.498   0.482  0.0426 -1.51  -0.717  0.288        0 no      
#> 10 no           0.498   0.482 -1.19   -0.806  0.141 -0.606        0 no      
#> # ℹ 462 more rows
…
